[gd_scene load_steps=4 format=3 uid="uid://cx1ksslnttixk"]

[ext_resource type="Texture2D" uid="uid://cgdw30prfmlm7" path="res://GameDVDCardtridge/Individenyous/Assets/Sprite/4x4_WHITE.png" id="1_ytnbm"]

[sub_resource type="PhysicsMaterial" id="PhysicsMaterial_pr8de"]

[sub_resource type="RectangleShape2D" id="RectangleShape2D_8p27l"]
size = Vector2(16, 16)

[node name="TilerInvid" type="Node2D"]

[node name="StaticBody2D" type="StaticBody2D" parent="."]
physics_material_override = SubResource("PhysicsMaterial_pr8de")

[node name="4x4White" type="Sprite2D" parent="StaticBody2D"]
self_modulate = Color(0, 1, 0, 1)
scale = Vector2(4, 4)
texture = ExtResource("1_ytnbm")

[node name="CollisionShape2D" type="CollisionShape2D" parent="StaticBody2D"]
shape = SubResource("RectangleShape2D_8p27l")
